[
  {
    "icon": "icon-oracle.png",
    "name": "Oracle Certified Professional, Java SE 8 Programmer",
    "issuer": "Oracle",
    "url": "https://catalog-education.oracle.com/pls/certview/sharebadge?id=A1E3DC3E0A04BF59DFE99793A315C3334C98251273422A247B46675808CA4671",
    "badge": "java_se_8_ocp.png"
  },
  {
    "icon": "icon-oracle.png",
    "name": "Oracle Certified Associate, Java SE 8 Programmer",
    "issuer": "Oracle",
    "url": "https://catalog-education.oracle.com/pls/certview/sharebadge?id=6D2CB253B4633030891AC556E3C0C4C168E142D1A49279B2C2F86295506E9178",
    "badge": "java_se_8_oca.png"
  },
  {
    "icon": "icon-pwr.png",
    "name": "Academic Certificate of the Level of English - level C1",
    "issuer": "Wrocław Univeristy of Science and Technology"
  }
]
